\relax 
\providecommand\hyper@newdestlabel[2]{}
\providecommand\HyperFirstAtBeginDocument{\AtBeginDocument}
\HyperFirstAtBeginDocument{\ifx\hyper@anchor\@undefined
\global\let\oldcontentsline\contentsline
\gdef\contentsline#1#2#3#4{\oldcontentsline{#1}{#2}{#3}}
\global\let\oldnewlabel\newlabel
\gdef\newlabel#1#2{\newlabelxx{#1}#2}
\gdef\newlabelxx#1#2#3#4#5#6{\oldnewlabel{#1}{{#2}{#3}}}
\AtEndDocument{\ifx\hyper@anchor\@undefined
\let\contentsline\oldcontentsline
\let\newlabel\oldnewlabel
\fi}
\fi}
\global\let\hyper@last\relax 
\gdef\HyperFirstAtBeginDocument#1{#1}
\providecommand\HyField@AuxAddToFields[1]{}
\providecommand\HyField@AuxAddToCoFields[2]{}
\@writefile{toc}{\contentsline {chapter}{\numberline {\relax 0}Introduction}{3}{chapter.0}}
\@writefile{lof}{\addvspace {10\p@ }}
\@writefile{lot}{\addvspace {10\p@ }}
\@writefile{toc}{\contentsline {chapter}{\numberline {I}Basic concepts in a one-period model}{5}{chapter.1}}
\@writefile{lof}{\addvspace {10\p@ }}
\@writefile{lot}{\addvspace {10\p@ }}
\@writefile{toc}{\contentsline {section}{\numberline {I.1}Definitions}{6}{section.1.1}}
\@writefile{toc}{\contentsline {section}{\numberline {I.2}Attainability and completeness}{9}{section.1.2}}
\@writefile{toc}{\contentsline {section}{\numberline {I.3}Arbitrage}{11}{section.1.3}}
\@writefile{toc}{\contentsline {section}{\numberline {I.4}Martingale measures}{14}{section.1.4}}
\@writefile{toc}{\contentsline {section}{\numberline {I.5}Price systems and attainability}{18}{section.1.5}}
\@writefile{toc}{\contentsline {section}{\numberline {I.6}Returns and CAPM-type relations}{22}{section.1.6}}
\@writefile{toc}{\contentsline {section}{\numberline {I.7}Superreplication and hedging duality}{25}{section.1.7}}
\@writefile{toc}{\contentsline {chapter}{\numberline {II}Arbitrage and martingale measures}{31}{chapter.2}}
\@writefile{lof}{\addvspace {10\p@ }}
\@writefile{lot}{\addvspace {10\p@ }}
\@writefile{toc}{\contentsline {section}{\numberline {II.1}Multiperiod financial market}{32}{section.2.1}}
\@writefile{toc}{\contentsline {section}{\numberline {II.2}Arbitrage basics}{35}{section.2.2}}
\@writefile{toc}{\contentsline {section}{\numberline {II.3}The Dalang-Morton-Willinger theorem}{39}{section.2.3}}
\@writefile{toc}{\contentsline {section}{\numberline {II.4}Density process}{43}{section.2.4}}
\@writefile{toc}{\contentsline {section}{\numberline {II.5}Attainability and completeness}{47}{section.2.5}}
\@writefile{toc}{\contentsline {section}{\numberline {II.6}The optional decomposition theorem}{51}{section.2.6}}
\citation{MR1311659}
\citation{MR1402653}
\citation{MR1804665}
\@writefile{toc}{\contentsline {section}{\numberline {II.7}The hedging duality}{57}{section.2.7}}
\@writefile{toc}{\contentsline {chapter}{\numberline {III}Utility maximisation}{59}{chapter.3}}
\@writefile{lof}{\addvspace {10\p@ }}
\@writefile{lot}{\addvspace {10\p@ }}
\@writefile{toc}{\contentsline {section}{\numberline {III.1}Setup and problem formulation}{60}{section.3.1}}
\@writefile{toc}{\contentsline {section}{\numberline {III.2}The martingale optimality principle and dynamic programming}{63}{section.3.2}}
\@writefile{toc}{\contentsline {section}{\numberline {III.3}Example: independent returns and power utility}{68}{section.3.3}}
\@writefile{toc}{\contentsline {section}{\numberline {III.4}Utility maximisation from terminal wealth: some basic ideas}{73}{section.3.4}}
\@writefile{toc}{\contentsline {section}{\numberline {III.5}Utility from terminal wealth: duality for $\Omega $ finite}{77}{section.3.5}}
\@writefile{toc}{\contentsline {chapter}{\numberline {IV}Utility from terminal wealth and duality}{83}{chapter.4}}
\@writefile{lof}{\addvspace {10\p@ }}
\@writefile{lot}{\addvspace {10\p@ }}
\citation{MR0274683}
\citation{MR0274683}
\@writefile{toc}{\contentsline {section}{\numberline {IV.1}Basics}{84}{section.4.1}}
\@writefile{toc}{\contentsline {section}{\numberline {IV.2}Abstract formulation and a dual problem}{86}{section.4.2}}
\@writefile{toc}{\contentsline {section}{\numberline {IV.3}Solving the dual problem}{88}{section.4.3}}
\citation{MR0274683}
\@writefile{toc}{\contentsline {section}{\numberline {IV.4}From dual to primal problem: idea and motivation}{91}{section.4.4}}
\@writefile{toc}{\contentsline {section}{\numberline {IV.5}Auxiliary results}{92}{section.4.5}}
\citation{MR1722287}
\citation{MR1722287}
\citation{MR549483}
\citation{MR0274683}
\citation{MR0274683}
\citation{MR1722287}
\@writefile{toc}{\contentsline {section}{\numberline {IV.6}Solution of the primal problem}{99}{section.4.6}}
\@writefile{toc}{\contentsline {section}{\numberline {IV.7}A direct solution to the primal problem}{101}{section.4.7}}
\bibdata{MF}
\bibstyle{alpha}
