\relax 
\providecommand\hyper@newdestlabel[2]{}
\providecommand*{\memsetcounter}[2]{}
\providecommand\HyperFirstAtBeginDocument{\AtBeginDocument}
\HyperFirstAtBeginDocument{\ifx\hyper@anchor\@undefined
\global\let\oldcontentsline\contentsline
\gdef\contentsline#1#2#3#4{\oldcontentsline{#1}{#2}{#3}}
\global\let\oldnewlabel\newlabel
\gdef\newlabel#1#2{\newlabelxx{#1}#2}
\gdef\newlabelxx#1#2#3#4#5#6{\oldnewlabel{#1}{{#2}{#3}}}
\AtEndDocument{\ifx\hyper@anchor\@undefined
\let\contentsline\oldcontentsline
\let\newlabel\oldnewlabel
\fi}
\fi}
\global\let\hyper@last\relax 
\gdef\HyperFirstAtBeginDocument#1{#1}
\providecommand\HyField@AuxAddToFields[1]{}
\providecommand\HyField@AuxAddToCoFields[2]{}
\@writefile{toc}{\changetocdepth  {2}}
\select@language{english}
\@writefile{toc}{\select@language{english}}
\@writefile{lof}{\select@language{english}}
\@writefile{lot}{\select@language{english}}
\@writefile{toc}{\contentsline {chapter}{Contents}{i}{section*.1}}
\@writefile{lof}{\addvspace {10pt}}
\@writefile{lot}{\addvspace {10pt}}
\@writefile{toc}{\contentsline {chapter}{\chapternumberline {1}Basic Concepts in a One-Period Model}{1}{chapter.1}}
\@writefile{toc}{\contentsline {section}{\numberline {1.1}Definitions}{1}{section.1.1}}
\@writefile{thm}{\contentsline {example}{{Example}{1}{Expected Utility}}{2}{example.1}}
\@writefile{thm}{\contentsline {definition}{{Definition}{1}{}}{2}{definition.1}}
\@writefile{thm}{\contentsline {interpretation}{{Interpretation}{1}{}}{3}{interpretation.1}}
\@writefile{thm}{\contentsline {remark}{{Remark}{1}{}}{3}{remark.1}}
\@writefile{thm}{\contentsline {definition}{{Definition}{2}{}}{3}{definition.2}}
\@writefile{thm}{\contentsline {definition}{{Definition}{3}{}}{3}{definition.3}}
\@writefile{thm}{\contentsline {intuition}{{Intuition}{1}{}}{3}{intuition.1}}
\@writefile{thm}{\contentsline {remark}{{Remark}{2}{}}{4}{remark.2}}
\@writefile{thm}{\contentsline {definition}{{Definition}{4}{}}{4}{definition.4}}
\@writefile{thm}{\contentsline {intuition}{{Intuition}{2}{}}{4}{intuition.2}}
\@writefile{thm}{\contentsline {definition}{{Definition}{5}{}}{4}{definition.5}}
\@writefile{thm}{\contentsline {intuition}{{Intuition}{3}{}}{4}{intuition.3}}
\@writefile{toc}{\contentsline {section}{\numberline {1.2}Attainability and Completeness}{4}{section.1.2}}
\@writefile{thm}{\contentsline {definition}{{Definition}{6}{}}{4}{definition.6}}
\@writefile{thm}{\contentsline {definition}{{Definition}{7}{}}{5}{definition.7}}
\@writefile{thm}{\contentsline {proposition}{{Proposition}{1.2.{1}}{}}{5}{theorem.1.2.1}}
\@writefile{thm}{\contentsline {proof}{{Proof}{1}{}}{5}{proof.1}}
\@writefile{thm}{\contentsline {remark}{{Remark}{3}{}}{5}{remark.3}}
\@writefile{thm}{\contentsline {theorem}{{Theorem}{1.2.{2}}{}}{5}{theorem.1.2.2}}
\@writefile{thm}{\contentsline {remark}{{Remark}{4}{}}{5}{remark.4}}
\@writefile{thm}{\contentsline {proof}{{Proof}{2}{}}{5}{proof.2}}
\@writefile{toc}{\contentsline {section}{\numberline {1.3}Arbitrage}{6}{section.1.3}}
\@writefile{thm}{\contentsline {definition}{{Definition}{8}{}}{6}{definition.8}}
\@writefile{thm}{\contentsline {proposition}{{Proposition}{1.3.{1}}{}}{6}{theorem.1.3.1}}
\@writefile{thm}{\contentsline {proof}{{Proof}{3}{}}{6}{proof.3}}
\@writefile{thm}{\contentsline {theorem}{{Theorem}{1.3.{2}}{}}{6}{theorem.1.3.2}}
\@writefile{thm}{\contentsline {remark}{{Remark}{5}{}}{6}{remark.5}}
\@writefile{thm}{\contentsline {proof}{{Proof}{4}{}}{7}{proof.4}}
\@writefile{thm}{\contentsline {lemma}{{Lemma}{1.3.{3}}{}}{7}{theorem.1.3.3}}
\@writefile{thm}{\contentsline {proof}{{Proof}{5}{}}{7}{proof.5}}
\@writefile{thm}{\contentsline {application}{{Application}{1}{}}{7}{application.1}}
\@writefile{thm}{\contentsline {remark}{{Remark}{6}{}}{7}{remark.6}}
\@writefile{thm}{\contentsline {example}{{Example}{2}{}}{7}{example.2}}
\@writefile{thm}{\contentsline {interpretation}{{Interpretation}{2}{}}{8}{interpretation.2}}
\@writefile{toc}{\contentsline {section}{\numberline {1.4}Martingale Measures}{9}{section.1.4}}
\@writefile{thm}{\contentsline {goal}{{Goal}{1}{}}{9}{goal.1}}
\@writefile{thm}{\contentsline {definition}{{Definition}{9}{}}{9}{definition.9}}
\@writefile{thm}{\contentsline {interpretation}{{Interpretation}{3}{}}{9}{interpretation.3}}
\@writefile{thm}{\contentsline {definition}{{Definition}{10}{}}{9}{definition.10}}
\@writefile{thm}{\contentsline {remark}{{Remark}{7}{}}{9}{remark.7}}
\@writefile{thm}{\contentsline {lemma}{{Lemma}{1.4.{1}}{}}{9}{theorem.1.4.1}}
\@writefile{thm}{\contentsline {proof}{{Proof}{6}{}}{9}{proof.6}}
\@writefile{thm}{\contentsline {lemma}{{Lemma}{1.4.{2}}{}}{9}{theorem.1.4.2}}
\@writefile{thm}{\contentsline {proof}{{Proof}{7}{}}{10}{proof.7}}
\@writefile{thm}{\contentsline {theorem}{{Theorem}{1.4.{3}}{}}{10}{theorem.1.4.3}}
\@writefile{thm}{\contentsline {proof}{{Proof}{8}{}}{10}{proof.8}}
\@writefile{thm}{\contentsline {corollary}{{Corollary}{1.4.{4}}{}}{11}{theorem.1.4.4}}
\@writefile{thm}{\contentsline {proof}{{Proof}{9}{}}{11}{proof.9}}
\@writefile{thm}{\contentsline {remark}{{Remark}{8}{}}{11}{remark.8}}
\@writefile{thm}{\contentsline {theorem_nn}{{Theorem}{1}{1.4.3 Re-phrased}}{11}{theorem_nn.1}}
\@writefile{thm}{\contentsline {theorem}{{Theorem}{1.4.{5}}{}}{12}{theorem.1.4.5}}
\@writefile{thm}{\contentsline {proof}{{Proof}{10}{}}{12}{proof.10}}
\@writefile{toc}{\contentsline {section}{\numberline {1.5}Price systems and attainability}{13}{section.1.5}}
\@writefile{thm}{\contentsline {goals}{{Goals}{1}{}}{13}{goals.1}}
\@writefile{thm}{\contentsline {definition}{{Definition}{11}{}}{13}{definition.11}}
\@writefile{thm}{\contentsline {remark}{{Remark}{9}{}}{13}{remark.9}}
\@writefile{thm}{\contentsline {definition}{{Definition}{12}{}}{13}{definition.12}}
\@writefile{thm}{\contentsline {interpretation}{{Interpretation}{4}{}}{13}{interpretation.4}}
\@writefile{thm}{\contentsline {proposition}{{Proposition}{1.5.{1}}{}}{13}{theorem.1.5.1}}
\@writefile{thm}{\contentsline {proof}{{Proof}{11}{}}{13}{proof.11}}
\@writefile{thm}{\contentsline {application}{{Application}{2}{}}{13}{application.2}}
\@writefile{thm}{\contentsline {remark}{{Remark}{10}{}}{14}{remark.10}}
\@writefile{thm}{\contentsline {example}{{Example}{3}{}}{14}{example.3}}
\@writefile{thm}{\contentsline {theorem}{{Theorem}{1.5.{2}}{}}{14}{theorem.1.5.2}}
\@writefile{thm}{\contentsline {proof}{{Proof}{12}{}}{14}{proof.12}}
\@writefile{thm}{\contentsline {intuition}{{Intuition}{4}{}}{15}{intuition.4}}
\@writefile{thm}{\contentsline {theorem}{{Theorem}{1.5.{3}}{}}{15}{theorem.1.5.3}}
\@writefile{thm}{\contentsline {proof}{{Proof}{13}{}}{15}{proof.13}}
\global\def\markxiiiproofi{\ensuremath {\square }}
\@writefile{toc}{\contentsline {section}{\numberline {1.6}Returns and CAPM-type relations}{16}{section.1.6}}
\@writefile{thm}{\contentsline {definition}{{Definition}{13}{}}{16}{definition.13}}
\@writefile{thm}{\contentsline {remark}{{Remark}{11}{}}{16}{remark.11}}
\@writefile{thm}{\contentsline {goal}{{Goal}{2}{}}{16}{goal.2}}
\@writefile{thm}{\contentsline {theorem}{{Theorem}{1.6.{1}}{}}{17}{theorem.1.6.1}}
\@writefile{thm}{\contentsline {interpretation}{{Interpretation}{5}{}}{17}{interpretation.5}}
\@writefile{thm}{\contentsline {remark}{{Remark}{12}{}}{17}{remark.12}}
\@writefile{thm}{\contentsline {proof}{{Proof}{14}{}}{17}{proof.14}}
\global\def\markxivproofiii{\ensuremath {\square }}
\@writefile{thm}{\contentsline {remark}{{Remark}{13}{}}{18}{remark.13}}
\@writefile{thm}{\contentsline {corollary}{{Corollary}{1.6.{2}}{}}{18}{theorem.1.6.2}}
\@writefile{thm}{\contentsline {interpretation}{{Interpretation}{6}{}}{18}{interpretation.6}}
\@writefile{thm}{\contentsline {proof}{{Proof}{15}{}}{18}{proof.15}}
\global\def\markxvproofiii{\ensuremath {\square }}
\@writefile{thm}{\contentsline {remark}{{Remark}{14}{}}{18}{remark.14}}
\@writefile{toc}{\contentsline {section}{\numberline {1.7}Superreplication and hedging duality}{19}{section.1.7}}
\@writefile{thm}{\contentsline {goal}{{Goal}{3}{}}{19}{goal.3}}
\@writefile{thm}{\contentsline {definition}{{Definition}{14}{}}{19}{definition.14}}
\@writefile{thm}{\contentsline {question}{{Question}{1}{}}{19}{question.1}}
\@writefile{thm}{\contentsline {definition}{{Definition}{15}{}}{19}{definition.15}}
\@writefile{thm}{\contentsline {interpretation}{{Interpretation}{7}{}}{19}{interpretation.7}}
\@writefile{thm}{\contentsline {definition}{{Definition}{16}{}}{20}{definition.16}}
\@writefile{thm}{\contentsline {interpretation}{{Interpretation}{8}{}}{20}{interpretation.8}}
\@writefile{thm}{\contentsline {lemma}{{Lemma}{1.7.{1}}{}}{20}{theorem.1.7.1}}
\@writefile{thm}{\contentsline {proof}{{Proof}{16}{}}{20}{proof.16}}
\@writefile{thm}{\contentsline {question}{{Question}{2}{}}{20}{question.2}}
\@writefile{thm}{\contentsline {example}{{Example}{4}{}}{20}{example.4}}
\@writefile{thm}{\contentsline {theorem}{{Theorem}{1.7.{2}}{}}{21}{theorem.1.7.2}}
\@writefile{thm}{\contentsline {remark}{{Remark}{15}{}}{21}{remark.15}}
\@writefile{thm}{\contentsline {proof}{{Proof}{17}{}}{21}{proof.17}}
\@writefile{thm}{\contentsline {lemma}{{Lemma}{1.7.{3}}{}}{21}{theorem.1.7.3}}
\@writefile{thm}{\contentsline {proof}{{Proof}{18}{}}{21}{proof.18}}
\global\def\markxviiiproofiii{\ensuremath {\square }}
\@writefile{thm}{\contentsline {proof}{{Proof}{19}{continuation of theorem $7.2$}}{22}{proof.19}}
\global\def\markxixproofiii{\ensuremath {\square }}
\@writefile{thm}{\contentsline {question}{{Question}{3}{}}{23}{question.3}}
\@writefile{thm}{\contentsline {proposition}{{Proposition}{1.7.{4}}{}}{23}{theorem.1.7.4}}
\@writefile{thm}{\contentsline {remark}{{Remark}{16}{}}{23}{remark.16}}
\@writefile{thm}{\contentsline {proof}{{Proof}{20}{}}{23}{proof.20}}
\global\def\markxxproofi{\ensuremath {\square }}
\@writefile{thm}{\contentsline {example}{{Example}{5}{}}{24}{example.5}}
\@writefile{lof}{\addvspace {10pt}}
\@writefile{lot}{\addvspace {10pt}}
\@writefile{toc}{\contentsline {chapter}{\chapternumberline {2}Arbitrage and Martingale Measures}{27}{chapter.2}}
\@writefile{thm}{\contentsline {goal}{{Goal}{4}{}}{27}{goal.4}}
\@writefile{toc}{\contentsline {section}{\numberline {2.1}Multi-period financial markets}{27}{section.2.1}}
\@writefile{thm}{\contentsline {interpretation}{{Interpretation}{9}{}}{27}{interpretation.9}}
\@writefile{thm}{\contentsline {definition}{{Definition}{17}{}}{27}{definition.17}}
\@writefile{thm}{\contentsline {convention}{{Convention}{1}{}}{27}{convention.1}}
\@writefile{thm}{\contentsline {remark}{{Remark}{17}{}}{27}{remark.17}}
\@writefile{thm}{\contentsline {definition}{{Definition}{18}{}}{28}{definition.18}}
\@writefile{thm}{\contentsline {interpretation}{{Interpretation}{10}{}}{28}{interpretation.10}}
\@writefile{thm}{\contentsline {definition}{{Definition}{19}{}}{28}{definition.19}}
\@writefile{thm}{\contentsline {remark}{{Remark}{18}{}}{28}{remark.18}}
\@writefile{thm}{\contentsline {remark}{{Remark}{19}{}}{28}{remark.19}}
\@writefile{thm}{\contentsline {definition}{{Definition}{20}{}}{28}{definition.20}}
\@writefile{thm}{\contentsline {interpretation}{{Interpretation}{11}{}}{28}{interpretation.11}}
\@writefile{thm}{\contentsline {notation}{{Notation}{1}{}}{28}{notation.1}}
\@writefile{thm}{\contentsline {definition}{{Definition}{21}{}}{29}{definition.21}}
\@writefile{thm}{\contentsline {interpretation}{{Interpretation}{12}{}}{29}{interpretation.12}}
\@writefile{thm}{\contentsline {lemma}{{Lemma}{2.1.{1}}{}}{29}{theorem.2.1.1}}
\@writefile{thm}{\contentsline {example}{{Example}{6}{}}{29}{example.6}}
\@writefile{thm}{\contentsline {proof}{{Proof}{21}{}}{29}{proof.21}}
\@writefile{thm}{\contentsline {interpretation}{{Interpretation}{13}{}}{29}{interpretation.13}}
\@writefile{thm}{\contentsline {proposition}{{Proposition}{2.1.{2}}{}}{30}{theorem.2.1.2}}
\@writefile{thm}{\contentsline {interpretation}{{Interpretation}{14}{}}{30}{interpretation.14}}
\@writefile{thm}{\contentsline {proof}{{Proof}{22}{}}{30}{proof.22}}
\@writefile{thm}{\contentsline {definition}{{Definition}{22}{}}{30}{definition.22}}
\@writefile{thm}{\contentsline {interpretation}{{Interpretation}{15}{}}{30}{interpretation.15}}
\@writefile{thm}{\contentsline {remark}{{Remark}{20}{}}{30}{remark.20}}
\@writefile{toc}{\contentsline {section}{\numberline {2.2}Arbitrage basics}{31}{section.2.2}}
\@writefile{thm}{\contentsline {setup}{{Setup}{1}{}}{31}{setup.1}}
\@writefile{thm}{\contentsline {notation}{{Notation}{2}{}}{31}{notation.2}}
\@writefile{thm}{\contentsline {definition}{{Definition}{23}{}}{31}{definition.23}}
\@writefile{thm}{\contentsline {interpretation}{{Interpretation}{16}{}}{31}{interpretation.16}}
\@writefile{thm}{\contentsline {remark}{{Remark}{21}{}}{31}{remark.21}}
\@writefile{thm}{\contentsline {proposition_nn}{{Proposition}{1}{$2.1.2$-rephrased}}{31}{proposition_nn.1}}
\@writefile{thm}{\contentsline {remark}{{Remark}{22}{}}{32}{remark.22}}
\@writefile{thm}{\contentsline {proof}{{Proof}{23}{}}{32}{proof.23}}
\@writefile{thm}{\contentsline {example}{{Example}{7}{}}{33}{example.7}}
\@writefile{thm}{\contentsline {recall}{{Recall}{1}{}}{34}{recall.1}}
\@writefile{thm}{\contentsline {definition}{{Definition}{24}{}}{34}{definition.24}}
\@writefile{thm}{\contentsline {example}{{Example}{8}{}}{34}{example.8}}
\@writefile{thm}{\contentsline {lemma}{{Lemma}{2.2.{1}}{}}{35}{theorem.2.2.1}}
\@writefile{thm}{\contentsline {remark}{{Remark}{23}{}}{35}{remark.23}}
\@writefile{thm}{\contentsline {proof}{{Proof}{24}{}}{35}{proof.24}}
\@writefile{thm}{\contentsline {recall}{{Recall}{2}{exercise}}{35}{recall.2}}
\@writefile{thm}{\contentsline {proposition}{{Proposition}{2.2.{2}}{}}{35}{theorem.2.2.2}}
\@writefile{thm}{\contentsline {proof}{{Proof}{25}{}}{35}{proof.25}}
\@writefile{thm}{\contentsline {remark}{{Remark}{24}{}}{35}{remark.24}}
\@writefile{thm}{\contentsline {setup}{{Setup}{2}{}}{36}{setup.2}}
\@writefile{thm}{\contentsline {proposition_nn}{{Proposition}{2}{C.1}}{36}{proposition_nn.2}}
\@writefile{thm}{\contentsline {definition}{{Definition}{25}{}}{36}{definition.25}}
\@writefile{thm}{\contentsline {exercise}{{Exercise}{1}{}}{36}{exercise.1}}
\@writefile{thm}{\contentsline {notation}{{Notation}{3}{}}{36}{notation.3}}
\@writefile{thm}{\contentsline {lemma_nn}{{Lemma}{1}{C.2}}{36}{lemma_nn.1}}
\@writefile{thm}{\contentsline {proof}{{Proof}{26}{}}{36}{proof.26}}
\@writefile{thm}{\contentsline {proposition_nn}{{Proposition}{3}{C.3 - Stopping Theorem}}{36}{proposition_nn.3}}
\@writefile{thm}{\contentsline {definition}{{Definition}{26}{}}{36}{definition.26}}
\@writefile{thm}{\contentsline {remark}{{Remark}{25}{}}{37}{remark.25}}
\@writefile{thm}{\contentsline {proposition_nn}{{Proposition}{4}{C.4}}{37}{proposition_nn.4}}
\@writefile{thm}{\contentsline {proof}{{Proof}{27}{}}{37}{proof.27}}
\@writefile{thm}{\contentsline {theorem_nn}{{Theorem}{2}{C.5}}{37}{theorem_nn.2}}
\@writefile{thm}{\contentsline {example}{{Example}{9}{}}{37}{example.9}}
\@writefile{thm}{\contentsline {corollary_nn}{{Corollary}{1}{C.6}}{37}{corollary_nn.1}}
\@writefile{thm}{\contentsline {lemma_nn}{{Lemma}{2}{C.7}}{38}{lemma_nn.2}}
\@writefile{thm}{\contentsline {proof}{{Proof}{28}{}}{38}{proof.28}}
\@writefile{toc}{\contentsline {section}{\numberline {2.3}The Dalang-Morton-Willinger theorem}{38}{section.2.3}}
\@writefile{thm}{\contentsline {goal}{{Goal}{5}{}}{38}{goal.5}}
\@writefile{thm}{\contentsline {setup}{{Setup}{3}{}}{38}{setup.3}}
\@writefile{thm}{\contentsline {notation}{{Notation}{4}{}}{38}{notation.4}}
\@writefile{thm}{\contentsline {recall}{{Recall}{3}{}}{38}{recall.3}}
\@writefile{thm}{\contentsline {recall}{{Recall}{4}{}}{38}{recall.4}}
\@writefile{thm}{\contentsline {theorem}{{Theorem}{2.3.{1}}{}}{39}{theorem.2.3.1}}
\@writefile{thm}{\contentsline {corollary}{{Corollary}{2.3.{2}}{Dalang-Morton-Willinger}}{39}{theorem.2.3.2}}
\@writefile{thm}{\contentsline {lemma}{{Lemma}{2.3.{3}}{}}{39}{theorem.2.3.3}}
\@writefile{thm}{\contentsline {proof}{{Proof}{29}{of the lemma}}{39}{proof.29}}
\@writefile{thm}{\contentsline {proof}{{Proof}{30}{of the theorem}}{39}{proof.30}}
\global\def\markxxxproofii{\ensuremath {\square }}
\@writefile{thm}{\contentsline {proposition}{{Proposition}{2.3.{4}}{}}{42}{theorem.2.3.4}}
\@writefile{thm}{\contentsline {remark}{{Remark}{26}{}}{42}{remark.26}}
\@writefile{thm}{\contentsline {proof}{{Proof}{31}{}}{42}{proof.31}}
\@writefile{thm}{\contentsline {remark}{{Remark}{27}{}}{42}{remark.27}}
\@writefile{toc}{\contentsline {section}{\numberline {2.4}Density processes and EMM}{42}{section.2.4}}
\@writefile{thm}{\contentsline {goal}{{Goal}{6}{}}{42}{goal.6}}
\@writefile{thm}{\contentsline {setup}{{Setup}{4}{}}{42}{setup.4}}
\@writefile{thm}{\contentsline {definition}{{Definition}{27}{}}{42}{definition.27}}
\@writefile{thm}{\contentsline {proposition}{{Proposition}{2.4.{1}}{}}{43}{theorem.2.4.1}}
\newlabel{equation:4.1}{{1}{43}{Density processes and EMM}{equation.2.4.1}{}}
\@writefile{thm}{\contentsline {proof}{{Proof}{32}{}}{43}{proof.32}}
\global\def\markxxxiiproofi{\ensuremath {\square }}
\@writefile{thm}{\contentsline {remark}{{Remark}{28}{}}{43}{remark.28}}
\@writefile{thm}{\contentsline {recall}{{Recall}{5}{}}{43}{recall.5}}
\@writefile{thm}{\contentsline {remark}{{Remark}{29}{}}{44}{remark.29}}
\@writefile{thm}{\contentsline {example}{{Example}{10}{}}{44}{example.10}}
\@writefile{thm}{\contentsline {example}{{Example}{11}{}}{45}{example.11}}
\@writefile{thm}{\contentsline {example}{{Example}{12}{}}{45}{example.12}}
\@writefile{thm}{\contentsline {example}{{Example}{13}{}}{45}{example.13}}
\@writefile{toc}{\contentsline {section}{\numberline {2.5}Attainability and completeness}{45}{section.2.5}}
\@writefile{thm}{\contentsline {goal}{{Goal}{7}{}}{45}{goal.7}}
\@writefile{thm}{\contentsline {setup}{{Setup}{5}{Usual}}{45}{setup.5}}
\@writefile{thm}{\contentsline {definition}{{Definition}{28}{}}{45}{definition.28}}
\@writefile{thm}{\contentsline {interpretation}{{Interpretation}{17}{}}{45}{interpretation.17}}
\@writefile{thm}{\contentsline {proposition}{{Proposition}{2.5.{1}}{}}{46}{theorem.2.5.1}}
\@writefile{thm}{\contentsline {proof}{{Proof}{33}{}}{46}{proof.33}}
\@writefile{thm}{\contentsline {interpretation}{{Interpretation}{18}{}}{46}{interpretation.18}}
\@writefile{thm}{\contentsline {remark}{{Remark}{30}{Important}}{46}{remark.30}}
\@writefile{thm}{\contentsline {theorem}{{Theorem}{2.5.{2}}{}}{47}{theorem.2.5.2}}
\@writefile{thm}{\contentsline {notation}{{Notation}{5}{}}{47}{notation.5}}
\@writefile{thm}{\contentsline {remark}{{Remark}{31}{}}{47}{remark.31}}
\@writefile{thm}{\contentsline {proof}{{Proof}{34}{}}{47}{proof.34}}
\newlabel{equation:5.1}{{2}{47}{Attainability and completeness}{equation.2.5.2}{}}
\newlabel{equation:5.2}{{3}{47}{Attainability and completeness}{equation.2.5.3}{}}
\@writefile{thm}{\contentsline {remark}{{Remark}{32}{}}{48}{remark.32}}
\@writefile{thm}{\contentsline {theorem}{{Theorem}{2.5.{3}}{}}{48}{theorem.2.5.3}}
\@writefile{thm}{\contentsline {proof}{{Proof}{35}{}}{48}{proof.35}}
\@writefile{thm}{\contentsline {remark}{{Remark}{33}{}}{48}{remark.33}}
\@writefile{thm}{\contentsline {remark}{{Remark}{34}{}}{48}{remark.34}}
\@writefile{thm}{\contentsline {summary}{{Summary}{1}{of the results so far}}{48}{summary.1}}
\@writefile{thm}{\contentsline {example}{{Example}{14}{}}{49}{example.14}}
\@writefile{thm}{\contentsline {proposition}{{Proposition}{2.5.{4}}{}}{49}{theorem.2.5.4}}
\@writefile{toc}{\contentsline {section}{\numberline {2.6}The optional decomposition theorem}{50}{section.2.6}}
\@writefile{thm}{\contentsline {setup}{{Setup}{6}{}}{50}{setup.6}}
\@writefile{thm}{\contentsline {proposition}{{Proposition}{2.6.{1}}{}}{50}{theorem.2.6.1}}
\@writefile{thm}{\contentsline {proof}{{Proof}{36}{}}{50}{proof.36}}
\newlabel{equation:6.1}{{4}{50}{The optional decomposition theorem}{equation.2.6.4}{}}
\@writefile{thm}{\contentsline {lemma}{{Lemma}{2.6.{2}}{}}{51}{theorem.2.6.2}}
\@writefile{thm}{\contentsline {proof}{{Proof}{37}{}}{51}{proof.37}}
\@writefile{thm}{\contentsline {lemma}{{Lemma}{2.6.{3}}{}}{52}{theorem.2.6.3}}
\@writefile{thm}{\contentsline {proof}{{Proof}{38}{}}{52}{proof.38}}
\@writefile{thm}{\contentsline {theorem}{{Theorem}{2.6.{4}}{Optional Decomposition, Kramkov}}{52}{theorem.2.6.4}}
\@writefile{thm}{\contentsline {proof}{{Proof}{39}{}}{53}{proof.39}}
\@writefile{thm}{\contentsline {lemma}{{Lemma}{2.6.{5}}{}}{53}{theorem.2.6.5}}
\@writefile{thm}{\contentsline {remark}{{Remark}{35}{}}{53}{remark.35}}
\@writefile{thm}{\contentsline {proof}{{Proof}{40}{}}{54}{proof.40}}
\@writefile{toc}{\contentsline {section}{\numberline {2.7}The hedging duality}{54}{section.2.7}}
\@writefile{thm}{\contentsline {goals}{{Goals}{2}{}}{54}{goals.2}}
\@writefile{thm}{\contentsline {setup}{{Setup}{7}{}}{55}{setup.7}}
\@writefile{thm}{\contentsline {lemma}{{Lemma}{2.7.{1}}{}}{55}{theorem.2.7.1}}
\@writefile{thm}{\contentsline {proof}{{Proof}{41}{}}{55}{proof.41}}
\@writefile{thm}{\contentsline {theorem}{{Theorem}{2.7.{2}}{Hedging Duality}}{55}{theorem.2.7.2}}
\@writefile{thm}{\contentsline {proof}{{Proof}{42}{}}{55}{proof.42}}
\@writefile{lof}{\addvspace {10pt}}
\@writefile{lot}{\addvspace {10pt}}
\@writefile{toc}{\contentsline {chapter}{\chapternumberline {3}Utility maximisation and stochastic control}{57}{chapter.3}}
\@writefile{thm}{\contentsline {goal}{{Goal}{8}{}}{57}{goal.8}}
\@writefile{toc}{\contentsline {section}{\numberline {3.1}Setup and problem formulation}{57}{section.3.1}}
\@writefile{thm}{\contentsline {setup}{{Setup}{8}{}}{57}{setup.8}}
\@writefile{thm}{\contentsline {notation}{{Notation}{6}{}}{58}{notation.6}}
\@writefile{thm}{\contentsline {notation}{{Notation}{7}{}}{58}{notation.7}}
\@writefile{thm}{\contentsline {example}{{Example}{15}{}}{59}{example.15}}
\@writefile{thm}{\contentsline {remark}{{Remark}{36}{}}{59}{remark.36}}
\@writefile{toc}{\contentsline {section}{\numberline {3.2}The martingale optimality principle and dynamic programming}{59}{section.3.2}}
\@writefile{thm}{\contentsline {goal}{{Goal}{9}{}}{59}{goal.9}}
\@writefile{thm}{\contentsline {notation}{{Notation}{8}{}}{60}{notation.8}}
\@writefile{thm}{\contentsline {lemma}{{Lemma}{3.2.{1}}{}}{60}{theorem.3.2.1}}
\@writefile{thm}{\contentsline {proof}{{Proof}{43}{}}{60}{proof.43}}
\@writefile{thm}{\contentsline {proposition}{{Proposition}{3.2.{2}}{}}{60}{theorem.3.2.2}}
\@writefile{thm}{\contentsline {proof}{{Proof}{44}{}}{60}{proof.44}}
\@writefile{thm}{\contentsline {remark}{{Remark}{37}{}}{60}{remark.37}}
\@writefile{thm}{\contentsline {theorem}{{Theorem}{3.2.{3}}{Martingale optimality principle}}{61}{theorem.3.2.3}}
\@writefile{thm}{\contentsline {proof}{{Proof}{45}{}}{61}{proof.45}}
\@writefile{thm}{\contentsline {remark}{{Remark}{38}{}}{61}{remark.38}}
\@writefile{thm}{\contentsline {corollary}{{Corollary}{3.2.{4}}{}}{62}{theorem.3.2.4}}
\newlabel{equation:3.1}{{5}{62}{The martingale optimality principle and dynamic programming}{equation.3.2.5}{}}
\@writefile{thm}{\contentsline {proof}{{Proof}{46}{}}{62}{proof.46}}
\@writefile{thm}{\contentsline {goal}{{Goal}{10}{}}{62}{goal.10}}
\@writefile{thm}{\contentsline {algorithm}{{Algorithm}{1}{For constructing $(\theta ^{*},c^{*})$ as a candidate optimal pair}}{63}{algorithm.1}}
\@writefile{thm}{\contentsline {remark}{{Remark}{39}{}}{64}{remark.39}}
\@writefile{toc}{\contentsline {section}{\numberline {3.3}Example: Independent returns and power utility}{64}{section.3.3}}
\@writefile{thm}{\contentsline {goal}{{Goal}{11}{}}{64}{goal.11}}
\@writefile{thm}{\contentsline {goal}{{Goal}{12}{}}{64}{goal.12}}
\@writefile{thm}{\contentsline {remark}{{Remark}{40}{}}{66}{remark.40}}
\@writefile{toc}{\contentsline {section}{\numberline {3.4}Utility from terminal wealth}{67}{section.3.4}}
\@writefile{thm}{\contentsline {goal}{{Goal}{13}{}}{67}{goal.13}}
\@writefile{thm}{\contentsline {notation}{{Notation}{9}{}}{68}{notation.9}}
\@writefile{thm}{\contentsline {goal}{{Goal}{14}{}}{68}{goal.14}}
\@writefile{thm}{\contentsline {remark}{{Remark}{41}{}}{68}{remark.41}}
\@writefile{thm}{\contentsline {remark}{{Remark}{42}{}}{68}{remark.42}}
\@writefile{thm}{\contentsline {proposition}{{Proposition}{3.4.{1}}{}}{69}{theorem.3.4.1}}
\@writefile{thm}{\contentsline {proof}{{Proof}{47}{}}{69}{proof.47}}
\@writefile{thm}{\contentsline {theorem}{{Theorem}{3.4.{2}}{}}{69}{theorem.3.4.2}}
\@writefile{thm}{\contentsline {proof}{{Proof}{48}{}}{69}{proof.48}}
\@writefile{toc}{\contentsline {section}{\numberline {3.5}Utility from terminal wealth; duality for $\Omega $ finite}{70}{section.3.5}}
\@writefile{thm}{\contentsline {goal}{{Goal}{15}{}}{70}{goal.15}}
\@writefile{thm}{\contentsline {setup}{{Setup}{9}{}}{70}{setup.9}}
\@writefile{thm}{\contentsline {convention}{{Convention}{2}{}}{70}{convention.2}}
\newlabel{eq:five_one}{{6}{71}{Utility from terminal wealth; duality for $\Omega $ finite}{equation.3.5.6}{}}
\@writefile{thm}{\contentsline {lemma}{{Lemma}{3.5.{1}}{}}{72}{theorem.3.5.1}}
\newlabel{eq:five_two}{{7}{72}{Utility from terminal wealth; duality for $\Omega $ finite}{equation.3.5.7}{}}
\@writefile{thm}{\contentsline {proof}{{Proof}{49}{}}{72}{proof.49}}
\global\def\markxlixproofi{\ensuremath {\square }}
\@writefile{thm}{\contentsline {lemma}{{Lemma}{3.5.{2}}{}}{72}{theorem.3.5.2}}
\newlabel{eq:five_three}{{8}{72}{Utility from terminal wealth; duality for $\Omega $ finite}{equation.3.5.8}{}}
\@writefile{thm}{\contentsline {proof}{{Proof}{50}{}}{72}{proof.50}}
\global\def\marklproofi{\ensuremath {\square }}
\@writefile{thm}{\contentsline {theorem}{{Theorem}{3.5.{3}}{}}{73}{theorem.3.5.3}}
\newlabel{eq:five_four}{{9}{73}{Utility from terminal wealth; duality for $\Omega $ finite}{equation.3.5.9}{}}
\@writefile{thm}{\contentsline {proof}{{Proof}{51}{}}{73}{proof.51}}
\@writefile{thm}{\contentsline {theorem}{{Theorem}{3.5.{4}}{}}{73}{theorem.3.5.4}}
\@writefile{thm}{\contentsline {proof}{{Proof}{52}{}}{73}{proof.52}}
\newlabel{eq:five_six}{{11}{73}{Utility from terminal wealth; duality for $\Omega $ finite}{equation.3.5.11}{}}
\newlabel{eq:five_seven}{{12}{73}{Utility from terminal wealth; duality for $\Omega $ finite}{equation.3.5.12}{}}
\@writefile{thm}{\contentsline {remark}{{Remark}{43}{}}{74}{remark.43}}
\@writefile{lof}{\addvspace {10pt}}
\@writefile{lot}{\addvspace {10pt}}
\@writefile{toc}{\contentsline {chapter}{\chapternumberline {4}Utility from terminal wealth and duality}{75}{chapter.4}}
\@writefile{thm}{\contentsline {goal}{{Goal}{16}{}}{75}{goal.16}}
\@writefile{toc}{\contentsline {section}{\numberline {4.1}Basics}{75}{section.4.1}}
\@writefile{thm}{\contentsline {setup}{{Setup}{10}{}}{75}{setup.10}}
\@writefile{thm}{\contentsline {definition}{{Definition}{29}{}}{75}{definition.29}}
\newlabel{one_one}{{13}{76}{Basics}{equation.4.1.13}{}}
\@writefile{thm}{\contentsline {exercise}{{Exercise}{2}{}}{76}{exercise.2}}
\@writefile{thm}{\contentsline {exercise}{{Exercise}{3}{}}{76}{exercise.3}}
\newlabel{one_two}{{14}{76}{Basics}{equation.4.1.14}{}}
\@writefile{thm}{\contentsline {lemma}{{Lemma}{4.1.{1}}{}}{76}{theorem.4.1.1}}
\newlabel{one_three}{{15}{76}{Basics}{equation.4.1.15}{}}
\@writefile{thm}{\contentsline {proof}{{Proof}{53}{}}{76}{proof.53}}
\@writefile{thm}{\contentsline {example}{{Example}{16}{}}{76}{example.16}}
\@writefile{thm}{\contentsline {remark}{{Remark}{44}{}}{76}{remark.44}}
\@writefile{toc}{\contentsline {section}{\numberline {4.2}Abstract formulation and a dual problem}{77}{section.4.2}}
\newlabel{two_one}{{16}{77}{Abstract formulation and a dual problem}{equation.4.2.16}{}}
\newlabel{two_two}{{17}{77}{Abstract formulation and a dual problem}{equation.4.2.17}{}}
\@writefile{thm}{\contentsline {definition}{{Definition}{30}{}}{77}{definition.30}}
\newlabel{two_three}{{18}{78}{Abstract formulation and a dual problem}{equation.4.2.18}{}}
\newlabel{two_four}{{19}{78}{Abstract formulation and a dual problem}{equation.4.2.19}{}}
\@writefile{thm}{\contentsline {remark}{{Remark}{45}{Very Important}}{78}{remark.45}}
\@writefile{toc}{\contentsline {section}{\numberline {4.3}Solving the dual problem}{78}{section.4.3}}
\@writefile{thm}{\contentsline {goal}{{Goal}{17}{}}{78}{goal.17}}
\@writefile{thm}{\contentsline {notation}{{Notation}{10}{}}{79}{notation.10}}
\@writefile{thm}{\contentsline {lemma}{{Lemma}{4.3.{1}}{}}{79}{theorem.4.3.1}}
\@writefile{thm}{\contentsline {proof}{{Proof}{54}{}}{79}{proof.54}}
\@writefile{thm}{\contentsline {proposition}{{Proposition}{4.3.{2}}{}}{79}{theorem.4.3.2}}
\@writefile{thm}{\contentsline {proof}{{Proof}{55}{}}{79}{proof.55}}
\@writefile{thm}{\contentsline {proposition}{{Proposition}{4.3.{3}}{}}{79}{theorem.4.3.3}}
\@writefile{thm}{\contentsline {proof}{{Proof}{56}{}}{80}{proof.56}}
\@writefile{thm}{\contentsline {theorem}{{Theorem}{4.3.{4}}{}}{80}{theorem.4.3.4}}
\@writefile{thm}{\contentsline {proof}{{Proof}{57}{}}{80}{proof.57}}
\@writefile{thm}{\contentsline {corollary}{{Corollary}{4.3.{5}}{}}{80}{theorem.4.3.5}}
\@writefile{thm}{\contentsline {proof}{{Proof}{58}{}}{80}{proof.58}}
\@writefile{toc}{\contentsline {section}{\numberline {4.4}From dual to primal problem: idea and motivation}{81}{section.4.4}}
\@writefile{thm}{\contentsline {goal}{{Goal}{18}{}}{82}{goal.18}}
\@writefile{toc}{\contentsline {section}{\numberline {4.5}Auxiliary results}{82}{section.4.5}}
\@writefile{thm}{\contentsline {goal}{{Goal}{19}{}}{82}{goal.19}}
\@writefile{thm}{\contentsline {lemma}{{Lemma}{4.5.{1}}{}}{82}{theorem.4.5.1}}
\@writefile{thm}{\contentsline {proof}{{Proof}{59}{}}{82}{proof.59}}
\@writefile{thm}{\contentsline {definition}{{Definition}{31}{}}{83}{definition.31}}
\@writefile{thm}{\contentsline {example}{{Example}{17}{}}{83}{example.17}}
\@writefile{thm}{\contentsline {intuition}{{Intuition}{5}{}}{83}{intuition.5}}
\@writefile{thm}{\contentsline {example}{{Example}{18}{}}{83}{example.18}}
\@writefile{thm}{\contentsline {lemma}{{Lemma}{4.5.{2}}{}}{83}{theorem.4.5.2}}
\@writefile{thm}{\contentsline {proof}{{Proof}{60}{}}{83}{proof.60}}
\@writefile{thm}{\contentsline {remark}{{Remark}{46}{}}{83}{remark.46}}
\@writefile{thm}{\contentsline {lemma}{{Lemma}{4.5.{3}}{}}{83}{theorem.4.5.3}}
\@writefile{thm}{\contentsline {proof}{{Proof}{61}{}}{84}{proof.61}}
\@writefile{thm}{\contentsline {remark}{{Remark}{47}{}}{84}{remark.47}}
\@writefile{thm}{\contentsline {theorem}{{Theorem}{4.5.{4}}{}}{84}{theorem.4.5.4}}
\newlabel{five_one}{{20}{84}{Auxiliary results}{equation.4.5.20}{}}
\@writefile{thm}{\contentsline {proof}{{Proof}{62}{}}{84}{proof.62}}
\newlabel{five_two}{{21}{85}{Auxiliary results}{equation.4.5.21}{}}
\newlabel{five_three}{{22}{85}{Auxiliary results}{equation.4.5.22}{}}
\@writefile{thm}{\contentsline {lemma}{{Lemma}{4.5.{5}}{}}{86}{theorem.4.5.5}}
\@writefile{thm}{\contentsline {proof}{{Proof}{63}{}}{86}{proof.63}}
\@writefile{thm}{\contentsline {lemma}{{Lemma}{4.5.{6}}{}}{87}{theorem.4.5.6}}
\@writefile{thm}{\contentsline {proof}{{Proof}{64}{}}{87}{proof.64}}
\@writefile{toc}{\contentsline {section}{\numberline {4.6}Solution of the primal problem}{88}{section.4.6}}
\@writefile{thm}{\contentsline {goal}{{Goal}{20}{}}{88}{goal.20}}
\@writefile{thm}{\contentsline {lemma}{{Lemma}{4.6.{1}}{}}{88}{theorem.4.6.1}}
\@writefile{thm}{\contentsline {proof}{{Proof}{65}{}}{88}{proof.65}}
\@writefile{thm}{\contentsline {proposition}{{Proposition}{4.6.{2}}{}}{89}{theorem.4.6.2}}
\@writefile{thm}{\contentsline {proof}{{Proof}{66}{}}{89}{proof.66}}
\@writefile{thm}{\contentsline {theorem}{{Theorem}{4.6.{3}}{}}{89}{theorem.4.6.3}}
\@writefile{thm}{\contentsline {proof}{{Proof}{67}{}}{89}{proof.67}}
\@writefile{thm}{\contentsline {remark}{{Remark}{48}{}}{90}{remark.48}}
\@writefile{toc}{\contentsline {section}{\numberline {4.7}A direct solution to the primal problem}{90}{section.4.7}}
\@writefile{thm}{\contentsline {goal}{{Goal}{21}{}}{90}{goal.21}}
\@writefile{thm}{\contentsline {theorem_nn}{{Theorem}{3}{4.7.2}}{90}{theorem_nn.3}}
\@writefile{thm}{\contentsline {remark}{{Remark}{49}{}}{90}{remark.49}}
\@writefile{thm}{\contentsline {proof}{{Proof}{68}{}}{90}{proof.68}}
\@writefile{thm}{\contentsline {lemma_nn}{{Lemma}{3}{4.7.1}}{90}{lemma_nn.3}}
\@writefile{thm}{\contentsline {proof}{{Proof}{69}{}}{91}{proof.69}}
\@writefile{thm}{\contentsline {proof}{{Proof}{70}{}}{91}{proof.70}}
\@writefile{thm}{\contentsline {remark}{{Remark}{50}{}}{92}{remark.50}}
\memsetcounter{lastsheet}{96}
\memsetcounter{lastpage}{92}
